Hardware_architecture/LDPC_codes/tb_iams_decoder_top.vcd
$date
	Mon Mar 09 07:05:20 2026
$end
$version
	Icarus Verilog
$end
$timescale
	1ps
$end
$scope module tb_iams_decoder_top $end
$var wire 8 ! scan_data [7:0] $end
$var wire 1 " hd_valid_out $end
$var wire 8 # hd_out [7:0] $end
$var wire 1 $ done $end
$var parameter 32 % APP_MAX $end
$var parameter 32 & APP_MIN $end
$var parameter 32 ' DC_MAX $end
$var parameter 32 ( DECODE_TIMEOUT $end
$var parameter 32 ) EDGES $end
$var parameter 32 * EW $end
$var parameter 32 + IDW $end
$var parameter 32 , IT_MAX $end
$var parameter 32 - MSG_MAX $end
$var parameter 32 . MSG_MIN $end
$var parameter 32 / M_CN $end
$var parameter 32 0 NW $end
$var parameter 32 1 N_VN $end
$var parameter 32 2 QTW $end
$var parameter 32 3 QW $end
$var reg 1 4 clk $end
$var reg 3 5 llr_wr_addr [2:0] $end
$var reg 8 6 llr_wr_data [7:0] $end
$var reg 1 7 llr_wr_en $end
$var reg 1 8 rst_n $end
$var reg 3 9 scan_addr [2:0] $end
$var reg 1 : scan_en $end
$var reg 1 ; start $end
$var integer 32 < fail_cnt [31:0] $end
$var integer 32 = pass_cnt [31:0] $end
$var integer 32 > run_ok [31:0] $end
$var integer 32 ? synd_ok [31:0] $end
$scope function iabs $end
$var integer 32 @ x [31:0] $end
$upscope $end
$scope function isgn $end
$var integer 32 A x [31:0] $end
$upscope $end
$scope function sat_app_fn $end
$var integer 32 B x [31:0] $end
$upscope $end
$scope function sat_msg_fn $end
$var integer 32 C x [31:0] $end
$upscope $end
$scope module dut $end
$var wire 1 4 clk $end
$var wire 3 D llr_wr_addr [2:0] $end
$var wire 8 E llr_wr_data [7:0] $end
$var wire 1 7 llr_wr_en $end
$var wire 1 8 rst_n $end
$var wire 3 F scan_addr [2:0] $end
$var wire 8 G scan_data [7:0] $end
$var wire 1 : scan_en $end
$var wire 1 ; start $end
$var parameter 8 H APP_MAX $end
$var parameter 8 I APP_MIN $end
$var parameter 3 J CNU_RUN $end
$var parameter 33 K DCW $end
$var parameter 32 L DC_MAX $end
$var parameter 3 M DONE_ST $end
$var parameter 32 N EDGES $end
$var parameter 32 O EW $end
$var parameter 3 P IDLE $end
$var parameter 32 Q IDW $end
$var parameter 33 R ITW $end
$var parameter 32 S IT_MAX $end
$var parameter 3 T LOAD_BETA $end
$var parameter 7 U MSG_MAX $end
$var parameter 7 V MSG_MIN $end
$var parameter 32 W MW $end
$var parameter 32 X M_CN $end
$var parameter 32 Y NUM_LAYERS $end
$var parameter 32 Z NW $end
$var parameter 32 [ N_VN $end
$var parameter 32 \ QTW $end
$var parameter 32 ] QW $end
$var parameter 3 ^ WRITEBACK $end
$var reg 6 _ amag [5:0] $end
$var reg 15 ` app_wide [14:0] $end
$var reg 1 a asgn $end
$var reg 7 b b_sat [6:0] $end
$var reg 9 c b_wide [8:0] $end
$var reg 6 d delta_cnu [5:0] $end
$var reg 1 $ done $end
$var reg 3 e edge_cnt [2:0] $end
$var reg 8 f hd_out [7:0] $end
$var reg 1 " hd_valid_out $end
$var reg 2 g idx1 [1:0] $end
$var reg 2 h idx2 [1:0] $end
$var reg 4 i iter [3:0] $end
$var reg 2 j layer [1:0] $end
$var reg 6 k min1 [5:0] $end
$var reg 6 l min2 [5:0] $end
$var reg 3 m scan_addr_r [2:0] $end
$var reg 1 n sign_tot $end
$var reg 3 o state [2:0] $end
$var integer 32 p ci [31:0] $end
$var integer 32 q cn [31:0] $end
$var integer 32 r dn [31:0] $end
$var integer 32 s fi [31:0] $end
$var integer 32 t init_i [31:0] $end
$var integer 32 u init_j [31:0] $end
$scope function sat_app $end
$var reg 15 v x [14:0] $end
$upscope $end
$upscope $end
$scope begin tv1 $end
$var integer 32 w n [31:0] $end
$upscope $end
$scope begin tv2 $end
$var integer 32 x n [31:0] $end
$upscope $end
$scope begin tv3 $end
$var integer 32 y n [31:0] $end
$upscope $end
$scope begin tv4 $end
$var integer 32 z n [31:0] $end
$upscope $end
$scope begin tv5 $end
$var integer 32 { n [31:0] $end
$upscope $end
$scope begin tv6 $end
$var integer 32 | n [31:0] $end
$upscope $end
$scope begin tv7 $end
$var integer 32 } n [31:0] $end
$upscope $end
$scope begin tv8 $end
$var integer 32 ~ n [31:0] $end
$upscope $end
$scope task compute_syndrome $end
$var reg 8 !" hd [7:0] $end
$var integer 32 "" e [31:0] $end
$var integer 32 #" m [31:0] $end
$upscope $end
$scope task full_test $end
$var reg 1 $" expect_converge $end
$var reg 64 %" tv_num [63:0] $end
$upscope $end
$scope task golden_decode $end
$var integer 32 &" alpha_new [31:0] $end
$var integer 32 '" alpha_prev [31:0] $end
$var integer 32 (" app_new [31:0] $end
$var integer 32 )" beta [31:0] $end
$var integer 32 *" e [31:0] $end
$var integer 32 +" it [31:0] $end
$var integer 32 ," m [31:0] $end
$upscope $end
$scope task golden_iams_cnu $end
$var integer 32 -" dc [31:0] $end
$var integer 32 ." gamag [31:0] $end
$var integer 32 /" gasgn [31:0] $end
$var integer 32 0" gdelta [31:0] $end
$var integer 32 1" gidx1 [31:0] $end
$var integer 32 2" gidx2 [31:0] $end
$var integer 32 3" gmin1 [31:0] $end
$var integer 32 4" gmin2 [31:0] $end
$var integer 32 5" gstot [31:0] $end
$var integer 32 6" i [31:0] $end
$var integer 32 7" n [31:0] $end
$upscope $end
$scope task load_llrs_to_dut $end
$var integer 32 8" n [31:0] $end
$upscope $end
$scope task run_dut $end
$var integer 32 9" t [31:0] $end
$upscope $end
$scope task scan_app_memory $end
$var integer 32 :" n [31:0] $end
$upscope $end
$scope task verify_decode $end
$var reg 1 ;" expect_converge $end
$var reg 64 <" tv_num [63:0] $end
$var integer 32 =" app_errors [31:0] $end
$var integer 32 >" dut_hd_bit [31:0] $end
$var integer 32 ?" g_hd_bit [31:0] $end
$var integer 32 @" hd_errors [31:0] $end
$var integer 32 A" n [31:0] $end
$upscope $end
$upscope $end
$enddefinitions $end
$comment Show the parameter values. $end
$dumpall
b11 ^
b111 ]
b1000 \
b1000 [
b11 Z
b100 Y
b100 X
b10 W
b1000000 V
b111111 U
b1 T
b1000 S
b100 R
b10 Q
b0 P
b100 O
b1100 N
b100 M
b11 L
b11 K
b10 J
b10000000 I
b1111111 H
b111 3
b1000 2
b1000 1
b11 0
b100 /
b11111111111111111111111111000000 .
b111111 -
b1000 ,
b10 +
b100 *
b1100 )
b111110100 (
b11 '
b11111111111111111111111110000000 &
b1111111 %
$end
#0
$dumpvars
bx A"
bx @"
bx ?"
bx >"
bx ="
bx <"
x;"
bx :"
bx 9"
bx 8"
bx 7"
bx 6"
bx 5"
bx 4"
bx 3"
bx 2"
bx 1"
bx 0"
bx /"
bx ."
bx -"
bx ,"
bx +"
bx *"
bx )"
bx ("
bx '"
bx &"
bx %"
x$"
bx #"
bx ""
bx !"
bx ~
bx }
bx |
bx {
bx z
bx y
bx x
bx w
bx v
b1100 u
b1000 t
b11 s
bx r
b11 q
b11 p
b0 o
0n
bx m
b0 l
b0 k
b0 j
b0 i
b1 h
b10 g
bx f
b0 e
b0 d
bx c
bx b
0a
bx `
b0 _
bx G
b0 F
b0 E
b0 D
bx C
bx B
bx A
bx @
bx ?
bx >
b0 =
b0 <
0;
0:
b0 9
08
07
b0 6
b0 5
04
0$
bx #
0"
bx !
$end
#5000
b11 s
14
#10000
04
#15000
b11 s
14
#20000
04
#25000
b11 s
14
#30000
04
#35000
14
18
#40000
04
#45000
14
#50000
04
#55000
14
#56000
b0 8"
1$"
b1 %"
b1000 w
#60000
04
#65000
14
#66000
b1 8"
b10100 6
b10100 E
17
#70000
04
#75000
14
#76000
b10 8"
b1 5
b1 D
#80000
04
#85000
14
#86000
b11 8"
b10 5
b10 D
#90000
04
#95000
14
#96000
b100 8"
b11 5
b11 D
#100000
04
#105000
14
#106000
b101 8"
b100 5
b100 D
#110000
04
#115000
14
#116000
b110 8"
b101 5
b101 D
#120000
04
#125000
14
#126000
b111 8"
b110 5
b110 D
#130000
04
#135000
14
#136000
b1000 8"
b111 5
b111 D
#140000
04
#145000
14
#146000
b0 >
07
#150000
04
#155000
14
#156000
1;
#160000
04
#165000
b1 o
b1100 s
14
#166000
b0 9"
0;
#170000
04
#175000
b11 q
b1 h
b10 g
b0 l
b0 k
b11 p
b1 e
b1 9"
b10100 b
b10100 c
14
#180000
04
#185000
b10100 _
b11 q
b10100 d
b1 h
b10 g
b10100 l
b0 k
b11 p
b10 e
b10 9"
14
#190000
04
#195000
b10100 _
b11 q
b0 d
b1 h
b10 g
b10100 l
b10100 k
b11 p
b10 o
b0 e
b11 9"
14
#200000
04
#205000
b11 o
b100 9"
b11 s
14
#210000
04
#215000
b1 e
b101 9"
b100111 v
b100111 `
14
#220000
04
#225000
b10 e
b110 9"
b101000 v
b101000 `
14
#230000
04
#235000
b1 o
b1 j
b0 e
b111 9"
14
#240000
04
#245000
b10100 _
b11 q
b1 h
b10 g
b10100 l
b10100 k
b11 p
b1 e
b1000 9"
b101000 b
b101000 c
14
#250000
04
#255000
b10 e
b1001 9"
b10100 b
b10100 c
14
#260000
04
#265000
b10 o
b0 e
b1010 9"
14
#270000
04
#275000
b11 o
b1011 9"
b11 s
14
#280000
04
#285000
b1 e
b1100 9"
b111011 v
b111011 `
14
#290000
04
#295000
b10 e
b1101 9"
b101000 v
b101000 `
14
#300000
04
#305000
b1 o
b10 j
b0 e
b1110 9"
14
#310000
04
#315000
b10100 _
b11 q
b1 h
b10 g
b10100 l
b10100 k
b11 p
b1 e
b1111 9"
b100111 b
b100111 c
14
#320000
04
#325000
b100111 _
b11 q
b10011 d
b0 h
b10 g
b100111 l
b10100 k
b11 p
b10 e
b10000 9"
b101000 b
b101000 c
14
#330000
04
#335000
b10 o
b0 e
b10001 9"
b10100 b
b10100 c
14
#340000
04
#345000
b11 o
b10010 9"
b11 s
14
#350000
04
#355000
b1 e
b10011 9"
b111011 v
b111011 `
14
#360000
04
#365000
b10 e
b10100 9"
b111100 v
b111100 `
14
#370000
04
#375000
b1 o
b11 j
b0 e
b10101 9"
b111011 v
b111011 `
14
#380000
04
#385000
b101000 _
b11 q
b10100 d
b1 h
b10 g
b101000 l
b10100 k
b11 p
b1 e
b10110 9"
b101000 b
b101000 c
14
#390000
04
#395000
b10 e
b10111 9"
14
#400000
04
#405000
b10 o
b0 e
b11000 9"
b10100 b
b10100 c
14
#410000
04
#415000
b11 o
b11001 9"
b11 s
14
#420000
04
#425000
b1 e
b11010 9"
b111100 v
b111100 `
14
#430000
04
#435000
b10 e
b11011 9"
14
#440000
04
#445000
b1 o
b1 i
b0 j
b0 e
b11100 9"
14
#450000
04
#455000
b1 e
b11101 9"
b101000 b
b101000 c
14
#460000
04
#465000
b100111 _
b11 q
b10011 d
b1 h
b10 g
b100111 l
b10100 k
b11 p
b10 e
b11110 9"
b100111 b
b100111 c
14
#470000
04
#475000
b100111 _
b11 q
b1 d
b0 h
b1 g
b101000 l
b100111 k
b11 p
b10 o
b0 e
b11111 9"
b101000 b
b101000 c
14
#480000
04
#485000
b11 o
b100000 9"
b11 s
14
#490000
04
#495000
b1 e
b100001 9"
b1001111 v
b1001111 `
14
#500000
04
#505000
b10 e
b100010 9"
14
#510000
04
#515000
b1 o
b1 j
b0 e
b100011 9"
14
#520000
04
#525000
b100111 _
b11 q
b10 h
b1 g
b101000 l
b100111 k
b11 p
b1 e
b100100 9"
b111100 b
b111100 c
14
#530000
04
#535000
b101000 _
b11 q
b0 d
b1 h
b10 g
b101000 l
b101000 k
b11 p
b10 e
b100101 9"
b101000 b
b101000 c
14
#540000
04
#545000
b10 o
b0 e
b100110 9"
14
#550000
04
#555000
b11 o
b100111 9"
b11 s
14
#560000
04
#565000
b1 e
b101000 9"
b1100011 v
b1100011 `
14
#570000
04
#575000
b10 e
b101001 9"
b1010000 v
b1010000 `
14
#580000
04
#585000
b1 o
b10 j
b0 e
b101010 9"
14
#590000
04
#595000
b101000 _
b11 q
b1 h
b10 g
b101000 l
b101000 k
b11 p
b1 e
b101011 9"
b111011 b
b111011 c
14
#600000
04
#605000
b111011 _
b11 q
b10011 d
b0 h
b10 g
b111011 l
b101000 k
b11 p
b10 e
b101100 9"
b111100 b
b111100 c
14
#610000
04
#615000
b111011 _
b11 q
b100111 d
b0 h
b10 g
b111011 l
b10100 k
b11 p
b10 o
b0 e
b101101 9"
b10100 b
b10100 c
14
#620000
04
#625000
b11 o
b101110 9"
b11 s
14
#630000
04
#635000
b1 e
b101111 9"
b1001111 v
b1001111 `
14
#640000
04
#645000
b10 e
b110000 9"
b1010000 v
b1010000 `
14
#650000
04
#655000
b1 o
b11 j
b0 e
b110001 9"
b1001111 v
b1001111 `
14
#660000
04
#665000
b1 e
b110010 9"
b111011 b
b111011 c
14
#670000
04
#675000
b10 e
b110011 9"
b111100 b
b111100 c
14
#680000
04
#685000
b10 o
b0 e
b110100 9"
b10100 b
b10100 c
14
#690000
04
#695000
b11 o
b110101 9"
b11 s
14
#700000
04
#705000
b1 e
b110110 9"
14
#710000
04
#715000
b10 e
b110111 9"
b1010000 v
b1010000 `
14
#720000
04
#725000
b1 o
b10 i
b0 j
b0 e
b111000 9"
b1001111 v
b1001111 `
14
#730000
04
#735000
b101000 _
b11 q
b10100 d
b0 h
b10 g
b101000 l
b10100 k
b11 p
b1 e
b111001 9"
b101000 b
b101000 c
14
#740000
04
#745000
b101000 _
b11 q
b0 h
b10 g
b101000 l
b10100 k
b11 p
b10 e
b111010 9"
b111011 b
b111011 c
14
#750000
04
#755000
b101000 _
b11 q
b0 d
b0 h
b10 g
b101000 l
b101000 k
b11 p
b10 o
b0 e
b111011 9"
b101000 b
b101000 c
14
#760000
04
#765000
b11 o
b111100 9"
b11 s
14
#770000
04
#775000
b1 e
b111101 9"
b1010000 v
b1010000 `
14
#780000
04
#785000
b10 e
b111110 9"
b1100010 v
b1100010 `
14
#790000
04
#795000
b1 o
b1 j
b0 e
b111111 9"
b1010000 v
b1010000 `
14
#800000
04
#805000
b111011 _
b11 q
b10011 d
b1 h
b10 g
b111011 l
b101000 k
b11 p
b1 e
b1000000 9"
b111011 b
b111011 c
14
#810000
04
#815000
b101000 _
b11 q
b0 d
b1 h
b10 g
b101000 l
b101000 k
b11 p
b10 e
b1000001 9"
b101000 b
b101000 c
14
#820000
04
#825000
b10 o
b0 e
b1000010 9"
14
#830000
04
#835000
b11 o
b1000011 9"
b11 s
14
#840000
04
#845000
b1 e
b1000100 9"
b1100010 v
b1100010 `
14
#850000
04
#855000
b10 e
b1000101 9"
b1010000 v
b1010000 `
14
#860000
04
#865000
b1 o
b10 j
b0 e
b1000110 9"
14
#870000
04
#875000
b101000 _
b11 q
b1 h
b10 g
b101000 l
b101000 k
b11 p
b1 e
b1000111 9"
b111100 b
b111100 c
14
#880000
04
#885000
b111100 _
b11 q
b10100 d
b1 h
b10 g
b111100 l
b101000 k
b11 p
b10 e
b1001000 9"
14
#890000
04
#895000
b111100 _
b11 q
b101000 d
b1 h
b10 g
b111100 l
b10100 k
b11 p
b10 o
b0 e
b1001001 9"
b10100 b
b10100 c
14
#900000
04
#905000
b11 o
b1001010 9"
b11 s
14
#910000
04
#915000
b1 e
b1001011 9"
14
#920000
04
#925000
b10 e
b1001100 9"
14
#930000
04
#935000
b1 o
b11 j
b0 e
b1001101 9"
14
#940000
04
#945000
b1 e
b1001110 9"
b111100 b
b111100 c
14
#950000
04
#955000
b10 e
b1001111 9"
14
#960000
04
#965000
b10 o
b0 e
b1010000 9"
b10100 b
b10100 c
14
#970000
04
#975000
b11 o
b1010001 9"
b11 s
14
#980000
04
#985000
b1 e
b1010010 9"
14
#990000
04
#995000
b10 e
b1010011 9"
14
#1000000
04
#1005000
b1 o
b11 i
b0 j
b0 e
b1010100 9"
14
#1010000
04
#1015000
b101000 _
b11 q
b10100 d
b0 h
b10 g
b101000 l
b10100 k
b11 p
b1 e
b1010101 9"
b101000 b
b101000 c
14
#1020000
04
#1025000
b101000 _
b11 q
b0 h
b10 g
b101000 l
b10100 k
b11 p
b10 e
b1010110 9"
b111011 b
b111011 c
14
#1030000
04
#1035000
b101000 _
b11 q
b0 d
b0 h
b10 g
b101000 l
b101000 k
b11 p
b10 o
b0 e
b1010111 9"
b101000 b
b101000 c
14
#1040000
04
#1045000
b11 o
b1011000 9"
b11 s
14
#1050000
04
#1055000
b1 e
b1011001 9"
14
#1060000
04
#1065000
b10 e
b1011010 9"
b1100010 v
b1100010 `
14
#1070000
04
#1075000
b1 o
b1 j
b0 e
b1011011 9"
b1010000 v
b1010000 `
14
#1080000
04
#1085000
b111011 _
b11 q
b10011 d
b1 h
b10 g
b111011 l
b101000 k
b11 p
b1 e
b1011100 9"
b111011 b
b111011 c
14
#1090000
04
#1095000
b101000 _
b11 q
b0 d
b1 h
b10 g
b101000 l
b101000 k
b11 p
b10 e
b1011101 9"
b101000 b
b101000 c
14
#1100000
04
#1105000
b10 o
b0 e
b1011110 9"
14
#1110000
04
#1115000
b11 o
b1011111 9"
b11 s
14
#1120000
04
#1125000
b1 e
b1100000 9"
b1100010 v
b1100010 `
14
#1130000
04
#1135000
b10 e
b1100001 9"
b1010000 v
b1010000 `
14
#1140000
04
#1145000
b1 o
b10 j
b0 e
b1100010 9"
14
#1150000
04
#1155000
b101000 _
b11 q
b1 h
b10 g
b101000 l
b101000 k
b11 p
b1 e
b1100011 9"
b111100 b
b111100 c
14
#1160000
04
#1165000
b111100 _
b11 q
b10100 d
b1 h
b10 g
b111100 l
b101000 k
b11 p
b10 e
b1100100 9"
14
#1170000
04
#1175000
b111100 _
b11 q
b101000 d
b1 h
b10 g
b111100 l
b10100 k
b11 p
b10 o
b0 e
b1100101 9"
b10100 b
b10100 c
14
#1180000
04
#1185000
b11 o
b1100110 9"
b11 s
14
#1190000
04
#1195000
b1 e
b1100111 9"
14
#1200000
04
#1205000
b10 e
b1101000 9"
14
#1210000
04
#1215000
b1 o
b11 j
b0 e
b1101001 9"
14
#1220000
04
#1225000
b1 e
b1101010 9"
b111100 b
b111100 c
14
#1230000
04
#1235000
b10 e
b1101011 9"
14
#1240000
04
#1245000
b10 o
b0 e
b1101100 9"
b10100 b
b10100 c
14
#1250000
04
#1255000
b11 o
b1101101 9"
b11 s
14
#1260000
04
#1265000
b1 e
b1101110 9"
14
#1270000
04
#1275000
b10 e
b1101111 9"
14
#1280000
04
#1285000
b1 o
b100 i
b0 j
b0 e
b1110000 9"
14
#1290000
04
#1295000
b101000 _
b11 q
b10100 d
b0 h
b10 g
b101000 l
b10100 k
b11 p
b1 e
b1110001 9"
b101000 b
b101000 c
14
#1300000
04
#1305000
b101000 _
b11 q
b0 h
b10 g
b101000 l
b10100 k
b11 p
b10 e
b1110010 9"
b111011 b
b111011 c
14
#1310000
04
#1315000
b101000 _
b11 q
b0 d
b0 h
b10 g
b101000 l
b101000 k
b11 p
b10 o
b0 e
b1110011 9"
b101000 b
b101000 c
14
#1320000
04
#1325000
b11 o
b1110100 9"
b11 s
14
#1330000
04
#1335000
b1 e
b1110101 9"
14
#1340000
04
#1345000
b10 e
b1110110 9"
b1100010 v
b1100010 `
14
#1350000
04
#1355000
b1 o
b1 j
b0 e
b1110111 9"
b1010000 v
b1010000 `
14
#1360000
04
#1365000
b111011 _
b11 q
b10011 d
b1 h
b10 g
b111011 l
b101000 k
b11 p
b1 e
b1111000 9"
b111011 b
b111011 c
14
#1370000
04
#1375000
b101000 _
b11 q
b0 d
b1 h
b10 g
b101000 l
b101000 k
b11 p
b10 e
b1111001 9"
b101000 b
b101000 c
14
#1380000
04
#1385000
b10 o
b0 e
b1111010 9"
14
#1390000
04
#1395000
b11 o
b1111011 9"
b11 s
14
#1400000
04
#1405000
b1 e
b1111100 9"
b1100010 v
b1100010 `
14
#1410000
04
#1415000
b10 e
b1111101 9"
b1010000 v
b1010000 `
14
#1420000
04
#1425000
b1 o
b10 j
b0 e
b1111110 9"
14
#1430000
04
#1435000
b101000 _
b11 q
b1 h
b10 g
b101000 l
b101000 k
b11 p
b1 e
b1111111 9"
b111100 b
b111100 c
14
#1440000
04
#1445000
b111100 _
b11 q
b10100 d
b1 h
b10 g
b111100 l
b101000 k
b11 p
b10 e
b10000000 9"
14
#1450000
04
#1455000
b111100 _
b11 q
b101000 d
b1 h
b10 g
b111100 l
b10100 k
b11 p
b10 o
b0 e
b10000001 9"
b10100 b
b10100 c
14
#1460000
04
#1465000
b11 o
b10000010 9"
b11 s
14
#1470000
04
#1475000
b1 e
b10000011 9"
14
#1480000
04
#1485000
b10 e
b10000100 9"
14
#1490000
04
#1495000
b1 o
b11 j
b0 e
b10000101 9"
14
#1500000
04
#1505000
b1 e
b10000110 9"
b111100 b
b111100 c
14
#1510000
04
#1515000
b10 e
b10000111 9"
14
#1520000
04
#1525000
b10 o
b0 e
b10001000 9"
b10100 b
b10100 c
14
#1530000
04
#1535000
b11 o
b10001001 9"
b11 s
14
#1540000
04
#1545000
b1 e
b10001010 9"
14
#1550000
04
#1555000
b10 e
b10001011 9"
14
#1560000
04
#1565000
b1 o
b101 i
b0 j
b0 e
b10001100 9"
14
#1570000
04
#1575000
b101000 _
b11 q
b10100 d
b0 h
b10 g
b101000 l
b10100 k
b11 p
b1 e
b10001101 9"
b101000 b
b101000 c
14
#1580000
04
#1585000
b101000 _
b11 q
b0 h
b10 g
b101000 l
b10100 k
b11 p
b10 e
b10001110 9"
b111011 b
b111011 c
14
#1590000
04
#1595000
b101000 _
b11 q
b0 d
b0 h
b10 g
b101000 l
b101000 k
b11 p
b10 o
b0 e
b10001111 9"
b101000 b
b101000 c
14
#1600000
04
#1605000
b11 o
b10010000 9"
b11 s
14
#1610000
04
#1615000
b1 e
b10010001 9"
14
#1620000
04
#1625000
b10 e
b10010010 9"
b1100010 v
b1100010 `
14
#1630000
04
#1635000
b1 o
b1 j
b0 e
b10010011 9"
b1010000 v
b1010000 `
14
#1640000
04
#1645000
b111011 _
b11 q
b10011 d
b1 h
b10 g
b111011 l
b101000 k
b11 p
b1 e
b10010100 9"
b111011 b
b111011 c
14
#1650000
04
#1655000
b101000 _
b11 q
b0 d
b1 h
b10 g
b101000 l
b101000 k
b11 p
b10 e
b10010101 9"
b101000 b
b101000 c
14
#1660000
04
#1665000
b10 o
b0 e
b10010110 9"
14
#1670000
04
#1675000
b11 o
b10010111 9"
b11 s
14
#1680000
04
#1685000
b1 e
b10011000 9"
b1100010 v
b1100010 `
14
#1690000
04
#1695000
b10 e
b10011001 9"
b1010000 v
b1010000 `
14
#1700000
04
#1705000
b1 o
b10 j
b0 e
b10011010 9"
14
#1710000
04
#1715000
b101000 _
b11 q
b1 h
b10 g
b101000 l
b101000 k
b11 p
b1 e
b10011011 9"
b111100 b
b111100 c
14
#1720000
04
#1725000
b111100 _
b11 q
b10100 d
b1 h
b10 g
b111100 l
b101000 k
b11 p
b10 e
b10011100 9"
14
#1730000
04
#1735000
b111100 _
b11 q
b101000 d
b1 h
b10 g
b111100 l
b10100 k
b11 p
b10 o
b0 e
b10011101 9"
b10100 b
b10100 c
14
#1740000
04
#1745000
b11 o
b10011110 9"
b11 s
14
#1750000
04
#1755000
b1 e
b10011111 9"
14
#1760000
04
#1765000
b10 e
b10100000 9"
14
#1770000
04
#1775000
b1 o
b11 j
b0 e
b10100001 9"
14
#1780000
04
#1785000
b1 e
b10100010 9"
b111100 b
b111100 c
14
#1790000
04
#1795000
b10 e
b10100011 9"
14
#1800000
04
#1805000
b10 o
b0 e
b10100100 9"
b10100 b
b10100 c
14
#1810000
04
#1815000
b11 o
b10100101 9"
b11 s
14
#1820000
04
#1825000
b1 e
b10100110 9"
14
#1830000
04
#1835000
b10 e
b10100111 9"
14
#1840000
04
#1845000
b1 o
b110 i
b0 j
b0 e
b10101000 9"
14
#1850000
04
#1855000
b101000 _
b11 q
b10100 d
b0 h
b10 g
b101000 l
b10100 k
b11 p
b1 e
b10101001 9"
b101000 b
b101000 c
14
#1860000
04
#1865000
b101000 _
b11 q
b0 h
b10 g
b101000 l
b10100 k
b11 p
b10 e
b10101010 9"
b111011 b
b111011 c
14
#1870000
04
#1875000
b101000 _
b11 q
b0 d
b0 h
b10 g
b101000 l
b101000 k
b11 p
b10 o
b0 e
b10101011 9"
b101000 b
b101000 c
14
#1880000
04
#1885000
b11 o
b10101100 9"
b11 s
14
#1890000
04
#1895000
b1 e
b10101101 9"
14
#1900000
04
#1905000
b10 e
b10101110 9"
b1100010 v
b1100010 `
14
#1910000
04
#1915000
b1 o
b1 j
b0 e
b10101111 9"
b1010000 v
b1010000 `
14
#1920000
04
#1925000
b111011 _
b11 q
b10011 d
b1 h
b10 g
b111011 l
b101000 k
b11 p
b1 e
b10110000 9"
b111011 b
b111011 c
14
#1930000
04
#1935000
b101000 _
b11 q
b0 d
b1 h
b10 g
b101000 l
b101000 k
b11 p
b10 e
b10110001 9"
b101000 b
b101000 c
14
#1940000
04
#1945000
b10 o
b0 e
b10110010 9"
14
#1950000
04
#1955000
b11 o
b10110011 9"
b11 s
14
#1960000
04
#1965000
b1 e
b10110100 9"
b1100010 v
b1100010 `
14
#1970000
04
#1975000
b10 e
b10110101 9"
b1010000 v
b1010000 `
14
#1980000
04
#1985000
b1 o
b10 j
b0 e
b10110110 9"
14
#1990000
04
#1995000
b101000 _
b11 q
b1 h
b10 g
b101000 l
b101000 k
b11 p
b1 e
b10110111 9"
b111100 b
b111100 c
14
#2000000
04
#2005000
b111100 _
b11 q
b10100 d
b1 h
b10 g
b111100 l
b101000 k
b11 p
b10 e
b10111000 9"
14
#2010000
04
#2015000
b111100 _
b11 q
b101000 d
b1 h
b10 g
b111100 l
b10100 k
b11 p
b10 o
b0 e
b10111001 9"
b10100 b
b10100 c
14
#2020000
04
#2025000
b11 o
b10111010 9"
b11 s
14
#2030000
04
#2035000
b1 e
b10111011 9"
14
#2040000
04
#2045000
b10 e
b10111100 9"
14
#2050000
04
#2055000
b1 o
b11 j
b0 e
b10111101 9"
14
#2060000
04
#2065000
b1 e
b10111110 9"
b111100 b
b111100 c
14
#2070000
04
#2075000
b10 e
b10111111 9"
14
#2080000
04
#2085000
b10 o
b0 e
b11000000 9"
b10100 b
b10100 c
14
#2090000
04
#2095000
b11 o
b11000001 9"
b11 s
14
#2100000
04
#2105000
b1 e
b11000010 9"
14
#2110000
04
#2115000
b10 e
b11000011 9"
14
#2120000
04
#2125000
b1 o
b111 i
b0 j
b0 e
b11000100 9"
14
#2130000
04
#2135000
b101000 _
b11 q
b10100 d
b0 h
b10 g
b101000 l
b10100 k
b11 p
b1 e
b11000101 9"
b101000 b
b101000 c
14
#2140000
04
#2145000
b101000 _
b11 q
b0 h
b10 g
b101000 l
b10100 k
b11 p
b10 e
b11000110 9"
b111011 b
b111011 c
14
#2150000
04
#2155000
b101000 _
b11 q
b0 d
b0 h
b10 g
b101000 l
b101000 k
b11 p
b10 o
b0 e
b11000111 9"
b101000 b
b101000 c
14
#2160000
04
#2165000
b11 o
b11001000 9"
b11 s
14
#2170000
04
#2175000
b1 e
b11001001 9"
14
#2180000
04
#2185000
b10 e
b11001010 9"
b1100010 v
b1100010 `
14
#2190000
04
#2195000
b1 o
b1 j
b0 e
b11001011 9"
b1010000 v
b1010000 `
14
#2200000
04
#2205000
b111011 _
b11 q
b10011 d
b1 h
b10 g
b111011 l
b101000 k
b11 p
b1 e
b11001100 9"
b111011 b
b111011 c
14
#2210000
04
#2215000
b101000 _
b11 q
b0 d
b1 h
b10 g
b101000 l
b101000 k
b11 p
b10 e
b11001101 9"
b101000 b
b101000 c
14
#2220000
04
#2225000
b10 o
b0 e
b11001110 9"
14
#2230000
04
#2235000
b11 o
b11001111 9"
b11 s
14
#2240000
04
#2245000
b1 e
b11010000 9"
b1100010 v
b1100010 `
14
#2250000
04
#2255000
b10 e
b11010001 9"
b1010000 v
b1010000 `
14
#2260000
04
#2265000
b1 o
b10 j
b0 e
b11010010 9"
14
#2270000
04
#2275000
b101000 _
b11 q
b1 h
b10 g
b101000 l
b101000 k
b11 p
b1 e
b11010011 9"
b111100 b
b111100 c
14
#2280000
04
#2285000
b111100 _
b11 q
b10100 d
b1 h
b10 g
b111100 l
b101000 k
b11 p
b10 e
b11010100 9"
14
#2290000
04
#2295000
b111100 _
b11 q
b101000 d
b1 h
b10 g
b111100 l
b10100 k
b11 p
b10 o
b0 e
b11010101 9"
b10100 b
b10100 c
14
#2300000
04
#2305000
b11 o
b11010110 9"
b11 s
14
#2310000
04
#2315000
b1 e
b11010111 9"
14
#2320000
04
#2325000
b10 e
b11011000 9"
14
#2330000
04
#2335000
b1 o
b11 j
b0 e
b11011001 9"
14
#2340000
04
#2345000
b1 e
b11011010 9"
b111100 b
b111100 c
14
#2350000
04
#2355000
b10 e
b11011011 9"
14
#2360000
04
#2365000
b10 o
b0 e
b11011100 9"
b10100 b
b10100 c
14
#2370000
04
#2375000
b11 o
b11011101 9"
b11 s
14
#2380000
04
#2385000
b1 e
b11011110 9"
14
#2390000
04
#2395000
b10 e
b11011111 9"
14
#2400000
04
#2405000
b100 o
b0 j
b0 e
b11100000 9"
14
#2410000
04
#2415000
b0 o
1$
1"
b0 #
b0 f
b11100001 9"
b1000 r
14
#2420000
04
#2425000
0"
b11100010 9"
14
#2426000
b0 :"
b1010000 B
b1010000 ("
b111100 &"
b111100 '"
b111100 ."
b0 /"
b11 7"
b101000 0"
b1 2"
b10 1"
b111100 4"
b10100 3"
b0 5"
b10100 @
b10100 A
b11 6"
b11 -"
b10100 C
b10100 )"
b100 ,"
b1000 +"
b1000 *"
1;"
b1 <"
b1 >
#2430000
04
#2435000
14
#2436000
1:
#2440000
04
#2445000
b1010000 !
b1010000 G
b0 m
14
#2446000
b1 :"
0:
